CHUA/Resistencia600/datos_resistencia600.csv

Record Length,2500,Points,Tiempo1,Voltaje1,,,,,Tiempo2,Voltaje2
Sample Interval,1E-06,s,-0.0012500001,-116,,Record Length,2500,Points,-0.0012500001,-132
Trigger Point,1250.0002,Samples,-0.0012490001,-118,,Sample Interval,1E-06,s,-0.0012490001,-132
,,,-0.0012480001,-116,,Trigger Point,1250.0002,Samples,-0.0012480001,-132
,,,-0.0012470001,-118,,,,,-0.0012470001,-132
,,,-0.0012460001,-118,,,,,-0.0012460001,-132
Source,CH1,,-0.0012450001,-118,,,,,-0.0012450001,-132
Vertical Units,Volts,,-0.001244,-116,,Source,CH2,,-0.001244,-134
Vertical Scale,50,,-0.001243,-116,,Vertical Units,Volts,,-0.001243,-134
Vertical Offset,0,,-0.0012420001,-116,,Vertical Scale,50,,-0.0012420001,-132
Horizontal Units,s,,-0.0012410001,-114,,Vertical Offset,0,,-0.0012410001,-132
Horizontal Scale,0.00024999999937,,-0.0012400001,-114,,Horizontal Units,s,,-0.0012400001,-132
Pt Fmt,Y,,-0.0012390001,-114,,Horizontal Scale,0.00024999999937,,-0.0012390001,-132
Yzero,0.16,,-0.0012380001,-112,,Pt Fmt,Y,,-0.0012380001,-134
Probe Atten,10,,-0.0012370001,-112,,Yzero,0.08,,-0.0012370001,-132
,,,-0.0012360001,-110,,Probe Atten,10,,-0.0012360001,-132
Note, - 6:42:21 p. m.   11/03/2021,,-0.0012350001,-110,,,,,-0.0012350001,-132
,,,-0.0012340001,-108,,Note, - 6:42:21 p. m.   11/03/2021,,-0.0012340001,-130
,,,-0.0012330001,-108,,,,,-0.0012330001,-132
,,,-0.0012320001,-106,,,,,-0.0012320001,-132
,,,-0.0012310001,-106,,,,,-0.0012310001,-130
,,,-0.0012300001,-104,,,,,-0.0012300001,-130
,,,-0.001229,-102,,,,,-0.001229,-130
,,,-0.001228,-100,,,,,-0.001228,-130
,,,-0.0012270001,-100,,,,,-0.0012270001,-128
,,,-0.0012260001,-98,,,,,-0.0012260001,-128
,,,-0.0012250001,-96,,,,,-0.0012250001,-130
,,,-0.0012240001,-96,,,,,-0.0012240001,-130
,,,-0.0012230001,-94,,,,,-0.0012230001,-128
,,,-0.0012220001,-92,,,,,-0.0012220001,-128
,,,-0.0012210001,-90,,,,,-0.0012210001,-126
,,,-0.0012200001,-90,,,,,-0.0012200001,-126
,,,-0.0012190001,-88,,,,,-0.0012190001,-126
,,,-0.0012180001,-86,,,,,-0.0012180001,-126
,,,-0.0012170001,-84,,,,,-0.0012170001,-126
,,,-0.0012160001,-84,,,,,-0.0012160001,-126
,,,-0.0012150001,-82,,,,,-0.0012150001,-124
,,,-0.001214,-80,,,,,-0.001214,-124
,,,-0.001213,-78,,,,,-0.001213,-122
,,,-0.001212,-76,,,,,-0.001212,-118
,,,-0.0012110001,-76,,,,,-0.0012110001,-118
,,,-0.0012100001,-74,,,,,-0.0012100001,-116
,,,-0.0012090001,-72,,,,,-0.0012090001,-114
,,,-0.0012080001,-70,,,,,-0.0012080001,-112
,,,-0.0012070001,-68,,,,,-0.0012070001,-110
,,,-0.0012060001,-66,,,,,-0.0012060001,-108
,,,-0.0012050001,-64,,,,,-0.0012050001,-106
,,,-0.0012040001,-62,,,,,-0.0012040001,-104
,,,-0.0012030001,-60,,,,,-0.0012030001,-102
,,,-0.0012020001,-58,,,,,-0.0012020001,-100
,,,-0.0012010001,-56,,,,,-0.0012010001,-98
,,,-0.0012000001,-56,,,,,-0.0012000001,-96
,,,-0.001199,-54,,,,,-0.001199,-94
,,,-0.001198,-50,,,,,-0.001198,-92
,,,-0.001197,-48,,,,,-0.001197,-90
,,,-0.0011960001,-46,,,,,-0.0011960001,-88
,,,-0.0011950001,-46,,,,,-0.0011950001,-84
,,,-0.0011940001,-42,,,,,-0.0011940001,-82
,,,-0.0011930001,-42,,,,,-0.0011930001,-80
,,,-0.0011920001,-40,,,,,-0.0011920001,-76
,,,-0.0011910001,-38,,,,,-0.0011910001,-74
,,,-0.0011900001,-36,,,,,-0.0011900001,-72
,,,-0.0011890001,-34,,,,,-0.0011890001,-68
,,,-0.0011880001,-32,,,,,-0.0011880001,-66
,,,-0.0011870001,-30,,,,,-0.0011870001,-64
,,,-0.0011860001,-28,,,,,-0.0011860001,-62
,,,-0.0011850001,-26,,,,,-0.0011850001,-58
,,,-0.0011840001,-24,,,,,-0.0011840001,-56
,,,-0.001183,-22,,,,,-0.001183,-54
,,,-0.001182,-20,,,,,-0.001182,-50
,,,-0.0011810001,-16,,,,,-0.0011810001,-50
,,,-0.0011800001,-16,,,,,-0.0011800001,-48
,,,-0.0011790001,-12,,,,,-0.0011790001,-44
,,,-0.0011780001,-10,,,,,-0.0011780001,-42
,,,-0.0011770001,-8,,,,,-0.0011770001,-40
,,,-0.0011760001,-8,,,,,-0.0011760001,-36
,,,-0.0011750001,-4,,,,,-0.0011750001,-34
,,,-0.0011740001,-4,,,,,-0.0011740001,-30
,,,-0.0011730001,0,,,,,-0.0011730001,-28
,,,-0.0011720001,2,,,,,-0.0011720001,-26
,,,-0.0011710001,4,,,,,-0.0011710001,-24
,,,-0.0011700001,6,,,,,-0.0011700001,-20
,,,-0.0011690001,8,,,,,-0.0011690001,-16
,,,-0.001168,8,,,,,-0.001168,-14
,,,-0.001167,12,,,,,-0.001167,-12
,,,-0.001166,14,,,,,-0.001166,-10
,,,-0.0011650001,16,,,,,-0.0011650001,-6
,,,-0.0011640001,18,,,,,-0.0011640001,-4
,,,-0.0011630001,20,,,,,-0.0011630001,0
,,,-0.0011620001,22,,,,,-0.0011620001,2
,,,-0.0011610001,24,,,,,-0.0011610001,4
,,,-0.0011600001,26,,,,,-0.0011600001,8
,,,-0.0011590001,28,,,,,-0.0011590001,10
,,,-0.0011580001,30,,,,,-0.0011580001,10
,,,-0.0011570001,32,,,,,-0.0011570001,14
,,,-0.0011560001,34,,,,,-0.0011560001,16
,,,-0.0011550001,38,,,,,-0.0011550001,18
,,,-0.0011540001,38,,,,,-0.0011540001,22
,,,-0.001153,40,,,,,-0.001153,24
,,,-0.001152,44,,,,,-0.001152,28
,,,-0.001151,46,,,,,-0.001151,30
,,,-0.0011500001,46,,,,,-0.0011500001,34
,,,-0.0011490001,50,,,,,-0.0011490001,36
,,,-0.0011480001,50,,,,,-0.0011480001,38
,,,-0.0011470001,54,,,,,-0.0011470001,42
,,,-0.0011460001,54,,,,,-0.0011460001,46
,,,-0.0011450001,56,,,,,-0.0011450001,48
,,,-0.0011440001,60,,,,,-0.0011440001,50
,,,-0.0011430001,62,,,,,-0.0011430001,54
,,,-0.0011420001,64,,,,,-0.0011420001,56
,,,-0.0011410001,66,,,,,-0.0011410001,60
,,,-0.0011400001,68,,,,,-0.0011400001,62
,,,-0.0011390001,70,,,,,-0.0011390001,66
,,,-0.0011380001,72,,,,,-0.0011380001,68
,,,-0.001137,74,,,,,-0.001137,70
,,,-0.001136,78,,,,,-0.001136,74
,,,-0.0011350001,78,,,,,-0.0011350001,76
,,,-0.0011340001,80,,,,,-0.0011340001,78
,,,-0.0011330001,84,,,,,-0.0011330001,80
,,,-0.0011320001,86,,,,,-0.0011320001,84
,,,-0.0011310001,88,,,,,-0.0011310001,88
,,,-0.0011300001,90,,,,,-0.0011300001,90
,,,-0.0011290001,92,,,,,-0.0011290001,92
,,,-0.0011280001,94,,,,,-0.0011280001,96
,,,-0.0011270001,96,,,,,-0.0011270001,98
,,,-0.0011260001,98,,,,,-0.0011260001,102
,,,-0.0011250001,100,,,,,-0.0011250001,104
,,,-0.0011240001,102,,,,,-0.0011240001,106
,,,-0.0011230001,102,,,,,-0.0011230001,108
,,,-0.001122,104,,,,,-0.001122,110
,,,-0.001121,106,,,,,-0.001121,110
,,,-0.0011200001,108,,,,,-0.0011200001,110
,,,-0.0011190001,110,,,,,-0.0011190001,110
,,,-0.0011180001,110,,,,,-0.0011180001,110
,,,-0.0011170001,112,,,,,-0.0011170001,110
,,,-0.0011160001,114,,,,,-0.0011160001,110
,,,-0.0011150001,114,,,,,-0.0011150001,110
,,,-0.0011140001,114,,,,,-0.0011140001,110
,,,-0.0011130001,116,,,,,-0.0011130001,112
,,,-0.0011120001,116,,,,,-0.0011120001,112
,,,-0.0011110001,116,,,,,-0.0011110001,112
,,,-0.0011100001,116,,,,,-0.0011100001,112
,,,-0.0011090001,116,,,,,-0.0011090001,112
,,,-0.0011080001,116,,,,,-0.0011080001,114
,,,-0.001107,116,,,,,-0.001107,112
,,,-0.001106,116,,,,,-0.001106,112
,,,-0.001105,116,,,,,-0.001105,112
,,,-0.0011040001,116,,,,,-0.0011040001,114
,,,-0.0011030001,114,,,,,-0.0011030001,112
,,,-0.0011020001,114,,,,,-0.0011020001,112
,,,-0.0011010001,114,,,,,-0.0011010001,112
,,,-0.0011000001,114,,,,,-0.0011000001,112
,,,-0.0010990001,112,,,,,-0.0010990001,112
,,,-0.0010980001,112,,,,,-0.0010980001,112
,,,-0.0010970001,110,,,,,-0.0010970001,112
,,,-0.0010960001,110,,,,,-0.0010960001,112
,,,-0.0010950001,110,,,,,-0.0010950001,112
,,,-0.0010940001,108,,,,,-0.0010940001,112
,,,-0.0010930001,108,,,,,-0.0010930001,112
,,,-0.001092,106,,,,,-0.001092,110
,,,-0.001091,104,,,,,-0.001091,112
,,,-0.00109,104,,,,,-0.00109,110
,,,-0.0010890001,100,,,,,-0.0010890001,110
,,,-0.0010880001,100,,,,,-0.0010880001,110
,,,-0.0010870001,100,,,,,-0.0010870001,110
,,,-0.0010860001,98,,,,,-0.0010860001,108
,,,-0.0010850001,96,,,,,-0.0010850001,108
,,,-0.0010840001,94,,,,,-0.0010840001,110
,,,-0.0010830001,94,,,,,-0.0010830001,108
,,,-0.0010820001,92,,,,,-0.0010820001,106
,,,-0.0010810001,90,,,,,-0.0010810001,108
,,,-0.0010800001,88,,,,,-0.0010800001,106
,,,-0.0010790001,86,,,,,-0.0010790001,106
,,,-0.0010780001,86,,,,,-0.0010780001,106
,,,-0.0010770001,84,,,,,-0.0010770001,106
,,,-0.001076,82,,,,,-0.001076,104
,,,-0.001075,80,,,,,-0.001075,104
,,,-0.0010740001,80,,,,,-0.0010740001,104
,,,-0.0010730001,78,,,,,-0.0010730001,104
,,,-0.0010720001,76,,,,,-0.0010720001,102
,,,-0.0010710001,74,,,,,-0.0010710001,102
,,,-0.0010700001,74,,,,,-0.0010700001,102
,,,-0.0010690001,72,,,,,-0.0010690001,102
,,,-0.0010680001,70,,,,,-0.0010680001,100
,,,-0.0010670001,68,,,,,-0.0010670001,100
,,,-0.0010660001,68,,,,,-0.0010660001,98
,,,-0.0010650001,66,,,,,-0.0010650001,100
,,,-0.0010640001,62,,,,,-0.0010640001,98
,,,-0.0010630001,62,,,,,-0.0010630001,96
,,,-0.0010620001,60,,,,,-0.0010620001,94
,,,-0.001061,58,,,,,-0.001061,94
,,,-0.00106,56,,,,,-0.00106,92
,,,-0.001059,54,,,,,-0.001059,90
,,,-0.0010580001,52,,,,,-0.0010580001,88
,,,-0.0010570001,52,,,,,-0.0010570001,88
,,,-0.0010560001,52,,,,,-0.0010560001,86
,,,-0.0010550001,50,,,,,-0.0010550001,82
,,,-0.0010540001,48,,,,,-0.0010540001,82
,,,-0.0010530001,46,,,,,-0.0010530001,78
,,,-0.0010520001,44,,,,,-0.0010520001,78
,,,-0.0010510001,42,,,,,-0.0010510001,76
,,,-0.0010500001,40,,,,,-0.0010500001,72
,,,-0.0010490001,38,,,,,-0.0010490001,72
,,,-0.0010480001,36,,,,,-0.0010480001,70
,,,-0.0010470001,36,,,,,-0.0010470001,68
,,,-0.001046,32,,,,,-0.001046,66
,,,-0.001045,32,,,,,-0.001045,64
,,,-0.001044,30,,,,,-0.001044,60
,,,-0.0010430001,28,,,,,-0.0010430001,60
,,,-0.0010420001,26,,,,,-0.0010420001,56
,,,-0.0010410001,24,,,,,-0.0010410001,54
,,,-0.0010400001,22,,,,,-0.0010400001,52
,,,-0.0010390001,22,,,,,-0.0010390001,50
,,,-0.0010380001,18,,,,,-0.0010380001,48
,,,-0.0010370001,18,,,,,-0.0010370001,46
,,,-0.0010360001,16,,,,,-0.0010360001,44
,,,-0.0010350001,14,,,,,-0.0010350001,42
,,,-0.0010340001,12,,,,,-0.0010340001,38
,,,-0.0010330001,10,,,,,-0.0010330001,36
,,,-0.0010320001,8,,,,,-0.0010320001,34
,,,-0.0010310001,6,,,,,-0.0010310001,32
,,,-0.00103,4,,,,,-0.00103,30
,,,-0.001029,2,,,,,-0.001029,28
,,,-0.0010280001,2,,,,,-0.0010280001,24
,,,-0.0010270001,0,,,,,-0.0010270001,22
,,,-0.0010260001,-2,,,,,-0.0010260001,20
,,,-0.0010250001,-4,,,,,-0.0010250001,18
,,,-0.0010240001,-6,,,,,-0.0010240001,16
,,,-0.0010230001,-8,,,,,-0.0010230001,12
,,,-0.0010220001,-10,,,,,-0.0010220001,10
,,,-0.0010210001,-12,,,,,-0.0010210001,8
,,,-0.0010200001,-14,,,,,-0.0010200001,6
,,,-0.0010190001,-14,,,,,-0.0010190001,4
,,,-0.0010180001,-18,,,,,-0.0010180001,0
,,,-0.0010170001,-20,,,,,-0.0010170001,-2
,,,-0.0010160001,-22,,,,,-0.0010160001,-6
,,,-0.001015,-22,,,,,-0.001015,-6
,,,-0.001014,-24,,,,,-0.001014,-10
,,,-0.0010130001,-28,,,,,-0.0010130001,-12
,,,-0.0010120001,-30,,,,,-0.0010120001,-14
,,,-0.0010110001,-30,,,,,-0.0010110001,-16
,,,-0.0010100001,-32,,,,,-0.0010100001,-18
,,,-0.0010090001,-34,,,,,-0.0010090001,-20
,,,-0.0010080001,-36,,,,,-0.0010080001,-24
,,,-0.0010070001,-38,,,,,-0.0010070001,-26
,,,-0.0010060001,-40,,,,,-0.0010060001,-28
,,,-0.0010050001,-42,,,,,-0.0010050001,-32
,,,-0.0010040001,-44,,,,,-0.0010040001,-34
,,,-0.0010030001,-46,,,,,-0.0010030001,-38
,,,-0.0010020001,-46,,,,,-0.0010020001,-42
,,,-0.0010010001,-48,,,,,-0.0010010001,-44
,,,-0.001,-52,,,,,-0.001,-46
,,,-0.000999000039883,-52,,,,,-0.000999000039883,-50
,,,-0.000998000032268,-56,,,,,-0.000998000032268,-52
,,,-0.000997000141069,-58,,,,,-0.000997000141069,-54
,,,-0.000996000133455,-58,,,,,-0.000996000133455,-58
,,,-0.00099500012584,-62,,,,,-0.00099500012584,-60
,,,-0.000994000118226,-62,,,,,-0.000994000118226,-64
,,,-0.000993000110611,-66,,,,,-0.000993000110611,-66
,,,-0.000992000102997,-68,,,,,-0.000992000102997,-68
,,,-0.000991000095382,-68,,,,,-0.000991000095382,-70
,,,-0.000990000087768,-72,,,,,-0.000990000087768,-74
,,,-0.000989000080153,-74,,,,,-0.000989000080153,-76
,,,-0.000988000072539,-76,,,,,-0.000988000072539,-80
,,,-0.000987000064924,-76,,,,,-0.000987000064924,-82
,,,-0.00098600005731,-78,,,,,-0.00098600005731,-86
,,,-0.000985000049695,-80,,,,,-0.000985000049695,-88
,,,-0.000984000042081,-82,,,,,-0.000984000042081,-90
,,,-0.000983000034466,-84,,,,,-0.000983000034466,-92
,,,-0.000982000143267,-86,,,,,-0.000982000143267,-96
,,,-0.000981000135653,-88,,,,,-0.000981000135653,-98
,,,-0.000980000128038,-90,,,,,-0.000980000128038,-102
,,,-0.000979000120424,-92,,,,,-0.000979000120424,-104
,,,-0.000978000112809,-94,,,,,-0.000978000112809,-106
,,,-0.000977000105195,-94,,,,,-0.000977000105195,-110
,,,-0.00097600009758,-96,,,,,-0.00097600009758,-112
,,,-0.000975000089966,-100,,,,,-0.000975000089966,-114
,,,-0.000974000082351,-100,,,,,-0.000974000082351,-116
,,,-0.000973000074737,-102,,,,,-0.000973000074737,-118
,,,-0.000972000067122,-104,,,,,-0.000972000067122,-120
,,,-0.000971000117715,-104,,,,,-0.000971000117715,-124
,,,-0.000970000110101,-106,,,,,-0.000970000110101,-128
,,,-0.000969000102486,-108,,,,,-0.000969000102486,-128
,,,-0.000968000094872,-110,,,,,-0.000968000094872,-130
,,,-0.000967000087257,-112,,,,,-0.000967000087257,-130
,,,-0.000966000079643,-112,,,,,-0.000966000079643,-130
,,,-0.000965000072028,-112,,,,,-0.000965000072028,-130
,,,-0.000964000064414,-114,,,,,-0.000964000064414,-132
,,,-0.000963000115007,-114,,,,,-0.000963000115007,-132
,,,-0.000962000107393,-116,,,,,-0.000962000107393,-132
,,,-0.000961000099778,-116,,,,,-0.000961000099778,-132
,,,-0.000960000092164,-116,,,,,-0.000960000092164,-134
,,,-0.000959000084549,-116,,,,,-0.000959000084549,-132
,,,-0.000958000076935,-118,,,,,-0.000958000076935,-132
,,,-0.00095700006932,-118,,,,,-0.00095700006932,-134
,,,-0.000956000061706,-118,,,,,-0.000956000061706,-132
,,,-0.000955000112299,-116,,,,,-0.000955000112299,-134
,,,-0.000954000104684,-116,,,,,-0.000954000104684,-134
,,,-0.00095300009707,-116,,,,,-0.00095300009707,-134
,,,-0.000952000089455,-116,,,,,-0.000952000089455,-134
,,,-0.000951000081841,-116,,,,,-0.000951000081841,-134
,,,-0.000950000074226,-116,,,,,-0.000950000074226,-132
,,,-0.000949000066612,-114,,,,,-0.000949000066612,-134
,,,-0.000948000117205,-114,,,,,-0.000948000117205,-132
,,,-0.000947000109591,-112,,,,,-0.000947000109591,-132
,,,-0.000946000101976,-112,,,,,-0.000946000101976,-132
,,,-0.000945000094362,-112,,,,,-0.000945000094362,-132
,,,-0.000944000086747,-110,,,,,-0.000944000086747,-132
,,,-0.000943000079133,-108,,,,,-0.000943000079133,-132
,,,-0.000942000071518,-108,,,,,-0.000942000071518,-132
,,,-0.000941000063904,-106,,,,,-0.000941000063904,-132
,,,-0.000940000114497,-106,,,,,-0.000940000114497,-130
,,,-0.000939000106882,-104,,,,,-0.000939000106882,-130
,,,-0.000938000099268,-104,,,,,-0.000938000099268,-130
,,,-0.000937000091653,-100,,,,,-0.000937000091653,-130
,,,-0.000936000084039,-100,,,,,-0.000936000084039,-130
,,,-0.000935000076424,-100,,,,,-0.000935000076424,-130
,,,-0.00093400006881,-96,,,,,-0.00093400006881,-130
,,,-0.000933000061195,-96,,,,,-0.000933000061195,-128
,,,-0.000932000111789,-94,,,,,-0.000932000111789,-128
,,,-0.000931000104174,-92,,,,,-0.000931000104174,-128
,,,-0.00093000009656,-92,,,,,-0.00093000009656,-126
,,,-0.000929000088945,-90,,,,,-0.000929000088945,-126
,,,-0.000928000081331,-88,,,,,-0.000928000081331,-126
,,,-0.000927000073716,-88,,,,,-0.000927000073716,-126
,,,-0.000926000066102,-86,,,,,-0.000926000066102,-126
,,,-0.000925000116695,-84,,,,,-0.000925000116695,-124
,,,-0.00092400010908,-82,,,,,-0.00092400010908,-124
,,,-0.000923000101466,-80,,,,,-0.000923000101466,-124
,,,-0.000922000093851,-80,,,,,-0.000922000093851,-122
,,,-0.000921000086237,-78,,,,,-0.000921000086237,-120
,,,-0.000920000078622,-76,,,,,-0.000920000078622,-118
,,,-0.000919000071008,-74,,,,,-0.000919000071008,-116
,,,-0.000918000063393,-72,,,,,-0.000918000063393,-114
,,,-0.000917000113986,-70,,,,,-0.000917000113986,-112
,,,-0.000916000106372,-68,,,,,-0.000916000106372,-110
,,,-0.000915000098757,-66,,,,,-0.000915000098757,-110
,,,-0.000914000091143,-64,,,,,-0.000914000091143,-108
,,,-0.000913000083528,-62,,,,,-0.000913000083528,-106
,,,-0.000912000075914,-60,,,,,-0.000912000075914,-104
,,,-0.000911000068299,-60,,,,,-0.000911000068299,-102
,,,-0.000910000060685,-58,,,,,-0.000910000060685,-100
,,,-0.000909000111278,-56,,,,,-0.000909000111278,-96
,,,-0.000908000103664,-54,,,,,-0.000908000103664,-94
,,,-0.000907000096049,-52,,,,,-0.000907000096049,-92
,,,-0.000906000088435,-48,,,,,-0.000906000088435,-90
,,,-0.00090500008082,-46,,,,,-0.00090500008082,-88
,,,-0.000904000073206,-46,,,,,-0.000904000073206,-86
,,,-0.000903000065591,-44,,,,,-0.000903000065591,-84
,,,-0.000902000116184,-42,,,,,-0.000902000116184,-80
,,,-0.00090100010857,-40,,,,,-0.00090100010857,-78
,,,-0.000900000100955,-38,,,,,-0.000900000100955,-74
,,,-0.000899000093341,-36,,,,,-0.000899000093341,-72
,,,-0.000898000085726,-34,,,,,-0.000898000085726,-70
,,,-0.000897000078112,-32,,,,,-0.000897000078112,-68
,,,-0.000896000070497,-30,,,,,-0.000896000070497,-64
,,,-0.000895000062883,-28,,,,,-0.000895000062883,-64
,,,-0.000894000113476,-26,,,,,-0.000894000113476,-60
,,,-0.000893000105862,-24,,,,,-0.000893000105862,-58
,,,-0.000892000098247,-22,,,,,-0.000892000098247,-56
,,,-0.000891000090633,-20,,,,,-0.000891000090633,-54
,,,-0.000890000083018,-18,,,,,-0.000890000083018,-50
,,,-0.000889000075404,-16,,,,,-0.000889000075404,-48
,,,-0.000888000067789,-14,,,,,-0.000888000067789,-46
,,,-0.000887000118382,-12,,,,,-0.000887000118382,-42
,,,-0.000886000110768,-10,,,,,-0.000886000110768,-40
,,,-0.000885000103153,-8,,,,,-0.000885000103153,-36
,,,-0.000884000095539,-6,,,,,-0.000884000095539,-34
,,,-0.000883000087924,-4,,,,,-0.000883000087924,-32
,,,-0.00088200008031,-2,,,,,-0.00088200008031,-28
,,,-0.000881000072695,0,,,,,-0.000881000072695,-26
,,,-0.000880000065081,2,,,,,-0.000880000065081,-24
,,,-0.000879000115674,4,,,,,-0.000879000115674,-22
,,,-0.000878000108059,6,,,,,-0.000878000108059,-18
,,,-0.000877000100445,8,,,,,-0.000877000100445,-16
,,,-0.000876000092831,10,,,,,-0.000876000092831,-14
,,,-0.000875000085216,12,,,,,-0.000875000085216,-10
,,,-0.000874000077602,16,,,,,-0.000874000077602,-8
,,,-0.000873000069987,16,,,,,-0.000873000069987,-4
,,,-0.000872000062373,20,,,,,-0.000872000062373,-2
,,,-0.000871000112966,20,,,,,-0.000871000112966,0
,,,-0.000870000105351,22,,,,,-0.000870000105351,4
,,,-0.000869000097737,24,,,,,-0.000869000097737,6
,,,-0.000868000090122,26,,,,,-0.000868000090122,8
,,,-0.000867000082508,30,,,,,-0.000867000082508,10
,,,-0.000866000074893,32,,,,,-0.000866000074893,12
,,,-0.000865000067279,32,,,,,-0.000865000067279,14
,,,-0.000864000117872,36,,,,,-0.000864000117872,16
,,,-0.000863000110257,38,,,,,-0.000863000110257,20
,,,-0.000862000102643,40,,,,,-0.000862000102643,24
,,,-0.000861000095028,42,,,,,-0.000861000095028,26
,,,-0.000860000087414,44,,,,,-0.000860000087414,30
,,,-0.000859000079799,46,,,,,-0.000859000079799,32
,,,-0.000858000072185,48,,,,,-0.000858000072185,36
,,,-0.00085700006457,50,,,,,-0.00085700006457,38
,,,-0.000856000115164,52,,,,,-0.000856000115164,40
,,,-0.000855000107549,54,,,,,-0.000855000107549,44
,,,-0.000854000099935,56,,,,,-0.000854000099935,48
,,,-0.00085300009232,58,,,,,-0.00085300009232,50
,,,-0.000852000084706,62,,,,,-0.000852000084706,52
,,,-0.000851000077091,64,,,,,-0.000851000077091,54
,,,-0.000850000069477,66,,,,,-0.000850000069477,58
,,,-0.000849000061862,68,,,,,-0.000849000061862,60
,,,-0.000848000112455,70,,,,,-0.000848000112455,64
,,,-0.000847000104841,72,,,,,-0.000847000104841,66
,,,-0.000846000097226,74,,,,,-0.000846000097226,70
,,,-0.000845000089612,76,,,,,-0.000845000089612,72
,,,-0.000844000081997,78,,,,,-0.000844000081997,76
,,,-0.000843000074383,80,,,,,-0.000843000074383,78
,,,-0.000842000066768,82,,,,,-0.000842000066768,82
,,,-0.000841000117362,84,,,,,-0.000841000117362,84
,,,-0.000840000109747,86,,,,,-0.000840000109747,86
,,,-0.000839000102133,90,,,,,-0.000839000102133,90
,,,-0.000838000094518,92,,,,,-0.000838000094518,92
,,,-0.000837000086904,94,,,,,-0.000837000086904,94
,,,-0.000836000079289,96,,,,,-0.000836000079289,98
,,,-0.000835000071675,96,,,,,-0.000835000071675,100
,,,-0.00083400006406,100,,,,,-0.00083400006406,104
,,,-0.000833000114653,100,,,,,-0.000833000114653,106
,,,-0.000832000107039,102,,,,,-0.000832000107039,108
,,,-0.000831000099424,104,,,,,-0.000831000099424,110
,,,-0.00083000009181,106,,,,,-0.00083000009181,110
,,,-0.000829000084195,108,,,,,-0.000829000084195,112
,,,-0.000828000076581,110,,,,,-0.000828000076581,110
,,,-0.000827000068966,110,,,,,-0.000827000068966,112
