CHUA/Resistencia 400/datos_400resistencia.csv

Record Length,2500,Points,-1.2500001E-3,-84.000000000,,Record Length,2500,Points,-1.2500001E-3,-90.000000000,
Sample Interval,1.000000E-6,s,-1.2490001E-3,-86.000000000,,Sample Interval,1.000000E-6,s,-1.2490001E-3,-94.000000000,
Trigger Point,1.2500002E3,Samples,-1.2480001E-3,-88.000000000,,Trigger Point,1.2500002E3,Samples,-1.2480001E-3,-96.000000000,
,,,-1.2470001E-3,-90.000000000,,,,,-1.2470001E-3,-98.000000000,
,,,-1.2460001E-3,-92.000000000,,,,,-1.2460001E-3,-100.0000000,
,,,-1.2450001E-3,-94.000000000,,,,,-1.2450001E-3,-104.0000000,
Source,CH1,,-1.2440000E-3,-96.000000000,,Source,CH2,,-1.2440000E-3,-106.0000000,
Vertical Units,Volts,,-1.2430000E-3,-98.000000000,,Vertical Units,Volts,,-1.2430000E-3,-110.0000000,
Vertical Scale,50.00000000,,-1.2420001E-3,-100.0000000,,Vertical Scale,50.00000000,,-1.2420001E-3,-110.0000000,
Vertical Offset,0,,-1.2410001E-3,-102.0000000,,Vertical Offset,0,,-1.2410001E-3,-114.0000000,
Horizontal Units,s,,-1.2400001E-3,-104.0000000,,Horizontal Units,s,,-1.2400001E-3,-114.0000000,
Horizontal Scale,249.99999937E-6,,-1.2390001E-3,-106.0000000,,Horizontal Scale,249.99999937E-6,,-1.2390001E-3,-118.0000000,
Pt Fmt,Y,,-1.2380001E-3,-108.0000000,,Pt Fmt,Y,,-1.2380001E-3,-120.0000000,
Yzero,160.00000000E-3,,-1.2370001E-3,-110.0000000,,Yzero,80.000000000E-3,,-1.2370001E-3,-122.0000000,
Probe Atten,10.0000000,,-1.2360001E-3,-110.0000000,,Probe Atten,10.0000000,,-1.2360001E-3,-126.0000000,
,,,-1.2350001E-3,-112.0000000,,,,,-1.2350001E-3,-128.0000000,
Note, - 6:39:07 p. m.   11/03/2021,,-1.2340001E-3,-114.0000000,,Note, - 6:39:07 p. m.   11/03/2021,,-1.2340001E-3,-128.0000000,
,,,-1.2330001E-3,-114.0000000,,,,,-1.2330001E-3,-130.0000000,
,,,-1.2320001E-3,-118.0000000,,,,,-1.2320001E-3,-130.0000000,
,,,-1.2310001E-3,-118.0000000,,,,,-1.2310001E-3,-130.0000000,
,,,-1.2300001E-3,-118.0000000,,,,,-1.2300001E-3,-132.0000000,
,,,-1.2290000E-3,-120.0000000,,,,,-1.2290000E-3,-132.0000000,
,,,-1.2280000E-3,-120.0000000,,,,,-1.2280000E-3,-132.0000000,
,,,-1.2270001E-3,-122.0000000,,,,,-1.2270001E-3,-132.0000000,
,,,-1.2260001E-3,-122.0000000,,,,,-1.2260001E-3,-132.0000000,
,,,-1.2250001E-3,-122.0000000,,,,,-1.2250001E-3,-132.0000000,
,,,-1.2240001E-3,-124.0000000,,,,,-1.2240001E-3,-132.0000000,
,,,-1.2230001E-3,-122.0000000,,,,,-1.2230001E-3,-134.0000000,
,,,-1.2220001E-3,-124.0000000,,,,,-1.2220001E-3,-134.0000000,
,,,-1.2210001E-3,-122.0000000,,,,,-1.2210001E-3,-134.0000000,
,,,-1.2200001E-3,-122.0000000,,,,,-1.2200001E-3,-132.0000000,
,,,-1.2190001E-3,-122.0000000,,,,,-1.2190001E-3,-134.0000000,
,,,-1.2180001E-3,-122.0000000,,,,,-1.2180001E-3,-134.0000000,
,,,-1.2170001E-3,-122.0000000,,,,,-1.2170001E-3,-134.0000000,
,,,-1.2160001E-3,-120.0000000,,,,,-1.2160001E-3,-132.0000000,
,,,-1.2150001E-3,-120.0000000,,,,,-1.2150001E-3,-132.0000000,
,,,-1.2140000E-3,-120.0000000,,,,,-1.2140000E-3,-132.0000000,
,,,-1.2130000E-3,-120.0000000,,,,,-1.2130000E-3,-134.0000000,
,,,-1.2120000E-3,-118.0000000,,,,,-1.2120000E-3,-132.0000000,
,,,-1.2110001E-3,-118.0000000,,,,,-1.2110001E-3,-132.0000000,
,,,-1.2100001E-3,-116.0000000,,,,,-1.2100001E-3,-132.0000000,
,,,-1.2090001E-3,-116.0000000,,,,,-1.2090001E-3,-132.0000000,
,,,-1.2080001E-3,-114.0000000,,,,,-1.2080001E-3,-130.0000000,
,,,-1.2070001E-3,-114.0000000,,,,,-1.2070001E-3,-130.0000000,
,,,-1.2060001E-3,-112.0000000,,,,,-1.2060001E-3,-130.0000000,
,,,-1.2050001E-3,-110.0000000,,,,,-1.2050001E-3,-130.0000000,
,,,-1.2040001E-3,-110.0000000,,,,,-1.2040001E-3,-130.0000000,
,,,-1.2030001E-3,-108.0000000,,,,,-1.2030001E-3,-130.0000000,
,,,-1.2020001E-3,-106.0000000,,,,,-1.2020001E-3,-130.0000000,
,,,-1.2010001E-3,-106.0000000,,,,,-1.2010001E-3,-128.0000000,
,,,-1.2000001E-3,-104.0000000,,,,,-1.2000001E-3,-128.0000000,
,,,-1.1990000E-3,-104.0000000,,,,,-1.1990000E-3,-126.0000000,
,,,-1.1980000E-3,-100.0000000,,,,,-1.1980000E-3,-126.0000000,
,,,-1.1970000E-3,-100.0000000,,,,,-1.1970000E-3,-126.0000000,
,,,-1.1960001E-3,-98.000000000,,,,,-1.1960001E-3,-126.0000000,
,,,-1.1950001E-3,-96.000000000,,,,,-1.1950001E-3,-124.0000000,
,,,-1.1940001E-3,-96.000000000,,,,,-1.1940001E-3,-124.0000000,
,,,-1.1930001E-3,-94.000000000,,,,,-1.1930001E-3,-122.0000000,
,,,-1.1920001E-3,-92.000000000,,,,,-1.1920001E-3,-120.0000000,
,,,-1.1910001E-3,-90.000000000,,,,,-1.1910001E-3,-120.0000000,
,,,-1.1900001E-3,-88.000000000,,,,,-1.1900001E-3,-116.0000000,
,,,-1.1890001E-3,-86.000000000,,,,,-1.1890001E-3,-114.0000000,
,,,-1.1880001E-3,-86.000000000,,,,,-1.1880001E-3,-112.0000000,
,,,-1.1870001E-3,-84.000000000,,,,,-1.1870001E-3,-110.0000000,
,,,-1.1860001E-3,-82.000000000,,,,,-1.1860001E-3,-110.0000000,
,,,-1.1850001E-3,-80.000000000,,,,,-1.1850001E-3,-108.0000000,
,,,-1.1840001E-3,-78.000000000,,,,,-1.1840001E-3,-106.0000000,
,,,-1.1830000E-3,-76.000000000,,,,,-1.1830000E-3,-102.0000000,
,,,-1.1820000E-3,-74.000000000,,,,,-1.1820000E-3,-100.0000000,
,,,-1.1810001E-3,-72.000000000,,,,,-1.1810001E-3,-98.000000000,
,,,-1.1800001E-3,-70.000000000,,,,,-1.1800001E-3,-96.000000000,
,,,-1.1790001E-3,-68.000000000,,,,,-1.1790001E-3,-94.000000000,
,,,-1.1780001E-3,-66.000000000,,,,,-1.1780001E-3,-92.000000000,
,,,-1.1770001E-3,-62.000000000,,,,,-1.1770001E-3,-90.000000000,
,,,-1.1760001E-3,-60.000000000,,,,,-1.1760001E-3,-86.000000000,
,,,-1.1750001E-3,-58.000000000,,,,,-1.1750001E-3,-86.000000000,
,,,-1.1740001E-3,-58.000000000,,,,,-1.1740001E-3,-80.000000000,
,,,-1.1730001E-3,-54.00000000,,,,,-1.1730001E-3,-78.000000000,
,,,-1.1720001E-3,-52.00000000,,,,,-1.1720001E-3,-76.000000000,
,,,-1.1710001E-3,-50.00000000,,,,,-1.1710001E-3,-74.000000000,
,,,-1.1700001E-3,-48.00000000,,,,,-1.1700001E-3,-72.000000000,
,,,-1.1690001E-3,-46.00000000,,,,,-1.1690001E-3,-70.000000000,
,,,-1.1680000E-3,-44.00000000,,,,,-1.1680000E-3,-68.000000000,
,,,-1.1670000E-3,-42.00000000,,,,,-1.1670000E-3,-64.000000000,
,,,-1.1660000E-3,-40.00000000,,,,,-1.1660000E-3,-62.000000000,
,,,-1.1650001E-3,-38.00000000,,,,,-1.1650001E-3,-60.000000000,
,,,-1.1640001E-3,-36.00000000,,,,,-1.1640001E-3,-56.000000000,
,,,-1.1630001E-3,-32.00000000,,,,,-1.1630001E-3,-54.00000000,
,,,-1.1620001E-3,-32.00000000,,,,,-1.1620001E-3,-50.00000000,
,,,-1.1610001E-3,-28.00000000,,,,,-1.1610001E-3,-50.00000000,
,,,-1.1600001E-3,-26.00000000,,,,,-1.1600001E-3,-46.00000000,
,,,-1.1590001E-3,-24.00000000,,,,,-1.1590001E-3,-44.00000000,
,,,-1.1580001E-3,-22.00000000,,,,,-1.1580001E-3,-42.00000000,
,,,-1.1570001E-3,-20.0000000,,,,,-1.1570001E-3,-38.00000000,
,,,-1.1560001E-3,-18.0000000,,,,,-1.1560001E-3,-36.00000000,
,,,-1.1550001E-3,-16.0000000,,,,,-1.1550001E-3,-32.00000000,
,,,-1.1540001E-3,-14.0000000,,,,,-1.1540001E-3,-30.00000000,
,,,-1.1530000E-3,-10.0000000,,,,,-1.1530000E-3,-28.00000000,
,,,-1.1520000E-3,-8.000000000,,,,,-1.1520000E-3,-26.00000000,
,,,-1.1510000E-3,-6.00000000,,,,,-1.1510000E-3,-22.00000000,
,,,-1.1500001E-3,-4.00000000,,,,,-1.1500001E-3,-20.0000000,
,,,-1.1490001E-3,-2.0000000,,,,,-1.1490001E-3,-18.0000000,
,,,-1.1480001E-3,0.0,,,,,-1.1480001E-3,-14.0000000,
,,,-1.1470001E-3,2.0000000,,,,,-1.1470001E-3,-12.0000000,
,,,-1.1460001E-3,6.00000000,,,,,-1.1460001E-3,-10.0000000,
,,,-1.1450001E-3,6.00000000,,,,,-1.1450001E-3,-6.00000000,
,,,-1.1440001E-3,8.000000000,,,,,-1.1440001E-3,-4.00000000,
,,,-1.1430001E-3,10.0000000,,,,,-1.1430001E-3,-2.0000000,
,,,-1.1420001E-3,14.0000000,,,,,-1.1420001E-3,2.0000000,
,,,-1.1410001E-3,16.0000000,,,,,-1.1410001E-3,6.00000000,
,,,-1.1400001E-3,18.0000000,,,,,-1.1400001E-3,6.00000000,
,,,-1.1390001E-3,20.0000000,,,,,-1.1390001E-3,10.0000000,
,,,-1.1380001E-3,22.00000000,,,,,-1.1380001E-3,12.0000000,
,,,-1.1370000E-3,24.00000000,,,,,-1.1370000E-3,12.0000000,
,,,-1.1360000E-3,26.00000000,,,,,-1.1360000E-3,16.0000000,
,,,-1.1350001E-3,30.00000000,,,,,-1.1350001E-3,18.0000000,
,,,-1.1340001E-3,32.00000000,,,,,-1.1340001E-3,20.0000000,
,,,-1.1330001E-3,34.00000000,,,,,-1.1330001E-3,24.00000000,
,,,-1.1320001E-3,36.00000000,,,,,-1.1320001E-3,28.00000000,
,,,-1.1310001E-3,38.00000000,,,,,-1.1310001E-3,30.00000000,
,,,-1.1300001E-3,40.00000000,,,,,-1.1300001E-3,32.00000000,
,,,-1.1290001E-3,42.00000000,,,,,-1.1290001E-3,36.00000000,
,,,-1.1280001E-3,46.00000000,,,,,-1.1280001E-3,38.00000000,
,,,-1.1270001E-3,48.00000000,,,,,-1.1270001E-3,42.00000000,
,,,-1.1260001E-3,50.00000000,,,,,-1.1260001E-3,46.00000000,
,,,-1.1250001E-3,52.00000000,,,,,-1.1250001E-3,48.00000000,
,,,-1.1240001E-3,54.00000000,,,,,-1.1240001E-3,50.00000000,
,,,-1.1230001E-3,56.000000000,,,,,-1.1230001E-3,52.00000000,
,,,-1.1220000E-3,58.000000000,,,,,-1.1220000E-3,56.000000000,
,,,-1.1210000E-3,62.000000000,,,,,-1.1210000E-3,58.000000000,
,,,-1.1200001E-3,64.000000000,,,,,-1.1200001E-3,62.000000000,
,,,-1.1190001E-3,66.000000000,,,,,-1.1190001E-3,64.000000000,
,,,-1.1180001E-3,70.000000000,,,,,-1.1180001E-3,66.000000000,
,,,-1.1170001E-3,72.000000000,,,,,-1.1170001E-3,68.000000000,
,,,-1.1160001E-3,74.000000000,,,,,-1.1160001E-3,72.000000000,
,,,-1.1150001E-3,76.000000000,,,,,-1.1150001E-3,74.000000000,
,,,-1.1140001E-3,78.000000000,,,,,-1.1140001E-3,78.000000000,
,,,-1.1130001E-3,82.000000000,,,,,-1.1130001E-3,80.000000000,
,,,-1.1120001E-3,84.000000000,,,,,-1.1120001E-3,84.000000000,
,,,-1.1110001E-3,86.000000000,,,,,-1.1110001E-3,88.000000000,
,,,-1.1100001E-3,88.000000000,,,,,-1.1100001E-3,90.000000000,
,,,-1.1090001E-3,92.000000000,,,,,-1.1090001E-3,92.000000000,
,,,-1.1080001E-3,92.000000000,,,,,-1.1080001E-3,96.000000000,
,,,-1.1070000E-3,96.000000000,,,,,-1.1070000E-3,98.000000000,
,,,-1.1060000E-3,98.000000000,,,,,-1.1060000E-3,102.0000000,
,,,-1.1050000E-3,100.0000000,,,,,-1.1050000E-3,104.0000000,
,,,-1.1040001E-3,102.0000000,,,,,-1.1040001E-3,106.0000000,
,,,-1.1030001E-3,104.0000000,,,,,-1.1030001E-3,108.0000000,
,,,-1.1020001E-3,106.0000000,,,,,-1.1020001E-3,110.0000000,
,,,-1.1010001E-3,108.0000000,,,,,-1.1010001E-3,110.0000000,
,,,-1.1000001E-3,110.0000000,,,,,-1.1000001E-3,112.0000000,
,,,-1.0990001E-3,112.0000000,,,,,-1.0990001E-3,112.0000000,
,,,-1.0980001E-3,114.0000000,,,,,-1.0980001E-3,112.0000000,
,,,-1.0970001E-3,114.0000000,,,,,-1.0970001E-3,110.0000000,
,,,-1.0960001E-3,116.0000000,,,,,-1.0960001E-3,112.0000000,
,,,-1.0950001E-3,118.0000000,,,,,-1.0950001E-3,112.0000000,
,,,-1.0940001E-3,118.0000000,,,,,-1.0940001E-3,112.0000000,
,,,-1.0930001E-3,120.0000000,,,,,-1.0930001E-3,114.0000000,
,,,-1.0920000E-3,120.0000000,,,,,-1.0920000E-3,114.0000000,
,,,-1.0910000E-3,120.0000000,,,,,-1.0910000E-3,114.0000000,
,,,-1.0900000E-3,120.0000000,,,,,-1.0900000E-3,116.0000000,
,,,-1.0890001E-3,122.0000000,,,,,-1.0890001E-3,114.0000000,
,,,-1.0880001E-3,122.0000000,,,,,-1.0880001E-3,116.0000000,
,,,-1.0870001E-3,122.0000000,,,,,-1.0870001E-3,114.0000000,
,,,-1.0860001E-3,122.0000000,,,,,-1.0860001E-3,114.0000000,
,,,-1.0850001E-3,122.0000000,,,,,-1.0850001E-3,116.0000000,
,,,-1.0840001E-3,120.0000000,,,,,-1.0840001E-3,116.0000000,
,,,-1.0830001E-3,120.0000000,,,,,-1.0830001E-3,114.0000000,
,,,-1.0820001E-3,120.0000000,,,,,-1.0820001E-3,116.0000000,
,,,-1.0810001E-3,120.0000000,,,,,-1.0810001E-3,114.0000000,
,,,-1.0800001E-3,120.0000000,,,,,-1.0800001E-3,114.0000000,
,,,-1.0790001E-3,118.0000000,,,,,-1.0790001E-3,114.0000000,
,,,-1.0780001E-3,118.0000000,,,,,-1.0780001E-3,114.0000000,
,,,-1.0770001E-3,116.0000000,,,,,-1.0770001E-3,114.0000000,
,,,-1.0760000E-3,116.0000000,,,,,-1.0760000E-3,114.0000000,
,,,-1.0750000E-3,114.0000000,,,,,-1.0750000E-3,114.0000000,
,,,-1.0740001E-3,114.0000000,,,,,-1.0740001E-3,112.0000000,
,,,-1.0730001E-3,112.0000000,,,,,-1.0730001E-3,112.0000000,
,,,-1.0720001E-3,112.0000000,,,,,-1.0720001E-3,112.0000000,
,,,-1.0710001E-3,110.0000000,,,,,-1.0710001E-3,112.0000000,
,,,-1.0700001E-3,110.0000000,,,,,-1.0700001E-3,112.0000000,
,,,-1.0690001E-3,108.0000000,,,,,-1.0690001E-3,112.0000000,
,,,-1.0680001E-3,108.0000000,,,,,-1.0680001E-3,112.0000000,
,,,-1.0670001E-3,106.0000000,,,,,-1.0670001E-3,110.0000000,
,,,-1.0660001E-3,104.0000000,,,,,-1.0660001E-3,110.0000000,
,,,-1.0650001E-3,104.0000000,,,,,-1.0650001E-3,108.0000000,
,,,-1.0640001E-3,102.0000000,,,,,-1.0640001E-3,108.0000000,
,,,-1.0630001E-3,100.0000000,,,,,-1.0630001E-3,108.0000000,
,,,-1.0620001E-3,98.000000000,,,,,-1.0620001E-3,108.0000000,
,,,-1.0610000E-3,98.000000000,,,,,-1.0610000E-3,108.0000000,
,,,-1.0600000E-3,96.000000000,,,,,-1.0600000E-3,108.0000000,
,,,-1.0590000E-3,94.000000000,,,,,-1.0590000E-3,106.0000000,
,,,-1.0580001E-3,94.000000000,,,,,-1.0580001E-3,106.0000000,
,,,-1.0570001E-3,92.000000000,,,,,-1.0570001E-3,106.0000000,
,,,-1.0560001E-3,90.000000000,,,,,-1.0560001E-3,104.0000000,
,,,-1.0550001E-3,90.000000000,,,,,-1.0550001E-3,104.0000000,
,,,-1.0540001E-3,86.000000000,,,,,-1.0540001E-3,104.0000000,
,,,-1.0530001E-3,86.000000000,,,,,-1.0530001E-3,104.0000000,
,,,-1.0520001E-3,84.000000000,,,,,-1.0520001E-3,104.0000000,
,,,-1.0510001E-3,82.000000000,,,,,-1.0510001E-3,102.0000000,
,,,-1.0500001E-3,80.000000000,,,,,-1.0500001E-3,102.0000000,
,,,-1.0490001E-3,80.000000000,,,,,-1.0490001E-3,100.0000000,
,,,-1.0480001E-3,78.000000000,,,,,-1.0480001E-3,100.0000000,
,,,-1.0470001E-3,76.000000000,,,,,-1.0470001E-3,98.000000000,
,,,-1.0460000E-3,76.000000000,,,,,-1.0460000E-3,98.000000000,
,,,-1.0450000E-3,74.000000000,,,,,-1.0450000E-3,96.000000000,
,,,-1.0440000E-3,72.000000000,,,,,-1.0440000E-3,94.000000000,
,,,-1.0430001E-3,70.000000000,,,,,-1.0430001E-3,92.000000000,
,,,-1.0420001E-3,68.000000000,,,,,-1.0420001E-3,92.000000000,
,,,-1.0410001E-3,66.000000000,,,,,-1.0410001E-3,90.000000000,
,,,-1.0400001E-3,64.000000000,,,,,-1.0400001E-3,90.000000000,
,,,-1.0390001E-3,62.000000000,,,,,-1.0390001E-3,86.000000000,
,,,-1.0380001E-3,62.000000000,,,,,-1.0380001E-3,84.000000000,
,,,-1.0370001E-3,60.000000000,,,,,-1.0370001E-3,82.000000000,
,,,-1.0360001E-3,58.000000000,,,,,-1.0360001E-3,80.000000000,
,,,-1.0350001E-3,56.000000000,,,,,-1.0350001E-3,78.000000000,
,,,-1.0340001E-3,54.00000000,,,,,-1.0340001E-3,76.000000000,
,,,-1.0330001E-3,52.00000000,,,,,-1.0330001E-3,74.000000000,
,,,-1.0320001E-3,52.00000000,,,,,-1.0320001E-3,72.000000000,
,,,-1.0310001E-3,50.00000000,,,,,-1.0310001E-3,70.000000000,
,,,-1.0300000E-3,48.00000000,,,,,-1.0300000E-3,68.000000000,
,,,-1.0290000E-3,46.00000000,,,,,-1.0290000E-3,66.000000000,
,,,-1.0280001E-3,44.00000000,,,,,-1.0280001E-3,64.000000000,
,,,-1.0270001E-3,42.00000000,,,,,-1.0270001E-3,62.000000000,
,,,-1.0260001E-3,40.00000000,,,,,-1.0260001E-3,60.000000000,
,,,-1.0250001E-3,38.00000000,,,,,-1.0250001E-3,58.000000000,
,,,-1.0240001E-3,36.00000000,,,,,-1.0240001E-3,54.00000000,
,,,-1.0230001E-3,34.00000000,,,,,-1.0230001E-3,52.00000000,
,,,-1.0220001E-3,32.00000000,,,,,-1.0220001E-3,50.00000000,
,,,-1.0210001E-3,32.00000000,,,,,-1.0210001E-3,48.00000000,
,,,-1.0200001E-3,30.00000000,,,,,-1.0200001E-3,46.00000000,
,,,-1.0190001E-3,26.00000000,,,,,-1.0190001E-3,44.00000000,
,,,-1.0180001E-3,24.00000000,,,,,-1.0180001E-3,40.00000000,
,,,-1.0170001E-3,22.00000000,,,,,-1.0170001E-3,40.00000000,
,,,-1.0160001E-3,20.0000000,,,,,-1.0160001E-3,36.00000000,
,,,-1.0150000E-3,18.0000000,,,,,-1.0150000E-3,34.00000000,
,,,-1.0140000E-3,16.0000000,,,,,-1.0140000E-3,32.00000000,
,,,-1.0130001E-3,16.0000000,,,,,-1.0130001E-3,30.00000000,
,,,-1.0120001E-3,14.0000000,,,,,-1.0120001E-3,28.00000000,
,,,-1.0110001E-3,12.0000000,,,,,-1.0110001E-3,26.00000000,
,,,-1.0100001E-3,10.0000000,,,,,-1.0100001E-3,24.00000000,
,,,-1.0090001E-3,6.00000000,,,,,-1.0090001E-3,22.00000000,
,,,-1.0080001E-3,4.00000000,,,,,-1.0080001E-3,20.0000000,
,,,-1.0070001E-3,4.00000000,,,,,-1.0070001E-3,16.0000000,
,,,-1.0060001E-3,2.0000000,,,,,-1.0060001E-3,16.0000000,
,,,-1.0050001E-3,0.0,,,,,-1.0050001E-3,12.0000000,
,,,-1.0040001E-3,-2.0000000,,,,,-1.0040001E-3,10.0000000,
,,,-1.0030001E-3,-4.00000000,,,,,-1.0030001E-3,8.000000000,
,,,-1.0020001E-3,-6.00000000,,,,,-1.0020001E-3,6.00000000,
,,,-1.0010001E-3,-8.000000000,,,,,-1.0010001E-3,2.0000000,
,,,-1.0000000E-3,-10.0000000,,,,,-1.0000000E-3,0.0,
,,,-999.000039883E-6,-12.0000000,,,,,-999.000039883E-6,-2.0000000,
,,,-998.000032268E-6,-14.0000000,,,,,-998.000032268E-6,-4.00000000,
,,,-997.000141069E-6,-16.0000000,,,,,-997.000141069E-6,-6.00000000,
,,,-996.000133455E-6,-18.0000000,,,,,-996.000133455E-6,-8.000000000,
,,,-995.000125840E-6,-20.0000000,,,,,-995.000125840E-6,-12.0000000,
,,,-994.000118226E-6,-24.00000000,,,,,-994.000118226E-6,-12.0000000,
,,,-993.000110611E-6,-24.00000000,,,,,-993.000110611E-6,-14.0000000,
,,,-992.000102997E-6,-26.00000000,,,,,-992.000102997E-6,-16.0000000,
,,,-991.000095382E-6,-28.00000000,,,,,-991.000095382E-6,-20.0000000,
,,,-990.000087768E-6,-30.00000000,,,,,-990.000087768E-6,-22.00000000,
,,,-989.000080153E-6,-32.00000000,,,,,-989.000080153E-6,-26.00000000,
,,,-988.000072539E-6,-34.00000000,,,,,-988.000072539E-6,-28.00000000,
,,,-987.000064924E-6,-36.00000000,,,,,-987.000064924E-6,-32.00000000,
,,,-986.000057310E-6,-38.00000000,,,,,-986.000057310E-6,-34.00000000,
,,,-985.000049695E-6,-40.00000000,,,,,-985.000049695E-6,-36.00000000,
,,,-984.000042081E-6,-42.00000000,,,,,-984.000042081E-6,-40.00000000,
,,,-983.000034466E-6,-44.00000000,,,,,-983.000034466E-6,-42.00000000,
,,,-982.000143267E-6,-46.00000000,,,,,-982.000143267E-6,-46.00000000,
,,,-981.000135653E-6,-48.00000000,,,,,-981.000135653E-6,-48.00000000,
,,,-980.000128038E-6,-50.00000000,,,,,-980.000128038E-6,-50.00000000,
,,,-979.000120424E-6,-52.00000000,,,,,-979.000120424E-6,-52.00000000,
,,,-978.000112809E-6,-54.00000000,,,,,-978.000112809E-6,-56.000000000,
,,,-977.000105195E-6,-56.000000000,,,,,-977.000105195E-6,-58.000000000,
,,,-976.000097580E-6,-58.000000000,,,,,-976.000097580E-6,-60.000000000,
,,,-975.000089966E-6,-62.000000000,,,,,-975.000089966E-6,-64.000000000,
,,,-974.000082351E-6,-64.000000000,,,,,-974.000082351E-6,-66.000000000,
,,,-973.000074737E-6,-66.000000000,,,,,-973.000074737E-6,-68.000000000,
,,,-972.000067122E-6,-68.000000000,,,,,-972.000067122E-6,-70.000000000,
,,,-971.000117715E-6,-70.000000000,,,,,-971.000117715E-6,-74.000000000,
,,,-970.000110101E-6,-72.000000000,,,,,-970.000110101E-6,-76.000000000,
,,,-969.000102486E-6,-76.000000000,,,,,-969.000102486E-6,-78.000000000,
,,,-968.000094872E-6,-76.000000000,,,,,-968.000094872E-6,-80.000000000,
,,,-967.000087257E-6,-78.000000000,,,,,-967.000087257E-6,-86.000000000,
,,,-966.000079643E-6,-80.000000000,,,,,-966.000079643E-6,-88.000000000,
,,,-965.000072028E-6,-84.000000000,,,,,-965.000072028E-6,-90.000000000,
,,,-964.000064414E-6,-86.000000000,,,,,-964.000064414E-6,-92.000000000,
,,,-963.000115007E-6,-88.000000000,,,,,-963.000115007E-6,-94.000000000,
,,,-962.000107393E-6,-90.000000000,,,,,-962.000107393E-6,-98.000000000,
,,,-961.000099778E-6,-90.000000000,,,,,-961.000099778E-6,-100.0000000,
,,,-960.000092164E-6,-92.000000000,,,,,-960.000092164E-6,-102.0000000,
,,,-959.000084549E-6,-96.000000000,,,,,-959.000084549E-6,-106.0000000,
,,,-958.000076935E-6,-96.000000000,,,,,-958.000076935E-6,-108.0000000,
,,,-957.000069320E-6,-98.000000000,,,,,-957.000069320E-6,-110.0000000,
,,,-956.000061706E-6,-100.0000000,,,,,-956.000061706E-6,-112.0000000,
,,,-955.000112299E-6,-102.0000000,,,,,-955.000112299E-6,-114.0000000,
,,,-954.000104684E-6,-104.0000000,,,,,-954.000104684E-6,-116.0000000,
,,,-953.000097070E-6,-106.0000000,,,,,-953.000097070E-6,-118.0000000,
,,,-952.000089455E-6,-108.0000000,,,,,-952.000089455E-6,-122.0000000,
,,,-951.000081841E-6,-110.0000000,,,,,-951.000081841E-6,-124.0000000,
,,,-950.000074226E-6,-112.0000000,,,,,-950.000074226E-6,-126.0000000,
,,,-949.000066612E-6,-114.0000000,,,,,-949.000066612E-6,-128.0000000,
,,,-948.000117205E-6,-116.0000000,,,,,-948.000117205E-6,-130.0000000,
,,,-947.000109591E-6,-118.0000000,,,,,-947.000109591E-6,-130.0000000,
,,,-946.000101976E-6,-118.0000000,,,,,-946.000101976E-6,-130.0000000,
,,,-945.000094362E-6,-118.0000000,,,,,-945.000094362E-6,-132.0000000,
,,,-944.000086747E-6,-120.0000000,,,,,-944.000086747E-6,-132.0000000,
,,,-943.000079133E-6,-120.0000000,,,,,-943.000079133E-6,-132.0000000,
,,,-942.000071518E-6,-122.0000000,,,,,-942.000071518E-6,-132.0000000,
